.......
----------------------------------------------------------------------
Ran 7 tests in 0.012s

OK
Name             Stmts   Miss Branch BrPart  Cover   Missing
------------------------------------------------------------
Collatz.py          29      0     10      0   100%
TestCollatz.py      32      0      0      0   100%
------------------------------------------------------------
TOTAL               61      0     10      0   100%
